…
``` r
weather_bootstrap1 = 
  weather_df %>% 
  modelr::bootstrap(n = 5000, id = "strap_number") %>% 
  mutate(
    models = map(strap, ~ lm(tmax ~ tmin, data = .x)),
    results = map(models, broom::tidy)) %>% 
  select(strap_number, results) %>% 
  unnest(results) 

weather_bootstrap1
```

    ## # A tibble: 10,000 × 6
    ##    strap_number term        estimate std.error statistic   p.value
    ##    <chr>        <chr>          <dbl>     <dbl>     <dbl>     <dbl>
    ##  1 0001         (Intercept)     7.54    0.241       31.3 4.97e-105
    ##  2 0001         tmin            1.02    0.0180      56.4 8.83e-182
    ##  3 0002         (Intercept)     6.86    0.225       30.5 4.75e-102
    ##  4 0002         tmin            1.06    0.0172      61.9 5.33e-195
    ##  5 0003         (Intercept)     7.55    0.228       33.1 1.65e-111
    ##  6 0003         tmin            1.02    0.0176      57.7 5.64e-185
    ##  7 0004         (Intercept)     7.24    0.228       31.7 9.28e-107
    ##  8 0004         tmin            1.03    0.0177      58.4 1.23e-186
    ##  9 0005         (Intercept)     6.89    0.219       31.5 5.70e-106
    ## 10 0005         tmin            1.06    0.0164      64.7 2.07e-201
    ## # … with 9,990 more rows

``` r
weather_bootstrap2 = 
  weather_df %>% 
  modelr::bootstrap(n = 5000, id = "strap_number") %>% 
  mutate(
    models = map(strap, ~ lm(tmax ~ tmin, data = .x)),
    results = map(models, broom::glance)) %>% 
  select(strap_number, results) %>% 
  unnest(results)

weather_bootstrap2
```

    ## # A tibble: 5,000 × 13
    ##    strap_number r.squared adj.r.squared sigma statistic   p.value    df logLik
    ##    <chr>            <dbl>         <dbl> <dbl>     <dbl>     <dbl> <dbl>  <dbl>
    ##  1 0001             0.911         0.911  2.89     3722. 6.67e-193     1  -904.
    ##  2 0002             0.907         0.906  3.05     3522. 6.24e-189     1  -924.
    ##  3 0003             0.912         0.912  2.95     3771. 7.71e-194     1  -912.
    ##  4 0004             0.915         0.915  2.94     3906. 2.34e-196     1  -911.
    ##  5 0005             0.906         0.905  2.94     3479. 4.62e-188     1  -911.
    ##  6 0006             0.906         0.905  3.09     3482. 4.05e-188     1  -928.
    ##  7 0007             0.912         0.912  2.96     3777. 6.01e-194     1  -912.
    ##  8 0008             0.919         0.919  2.82     4118. 3.43e-200     1  -896.
    ##  9 0009             0.907         0.907  2.91     3542. 2.39e-189     1  -907.
    ## 10 0010             0.913         0.913  2.91     3822. 8.29e-195     1  -906.
    ## # … with 4,990 more rows, and 5 more variables: AIC <dbl>, BIC <dbl>,
    ## #   deviance <dbl>, df.residual <int>, nobs <int>
…
